<?xml version="1.0" encoding="iso-8859-1"?>
<!-- Generator: Adobe Illustrator 18.1.1, SVG Export Plug-In . SVG Version: 6.00 Build 0)  -->
<svg version="1.1" id="Capa_1" xmlns="http://www.w3.org/2000/svg" xmlns:xlink="http://www.w3.org/1999/xlink" x="0px" y="0px"
	 viewBox="0 0 59.447 59.447" style="enable-background:new 0 0 59.447 59.447;" xml:space="preserve">
<g>
	<g>
		<circle style="fill:#030104;" cx="29.03" cy="11.491" r="11.491"/>
		<path style="fill:#030104;" d="M21.843,46.937h0.188c0.008-5.188,0.429-17.873,4.212-21.934h-9.909
			c-1.413,0-2.841,1.144-2.841,2.561v24.972c0,0.566,0.195,1.087,0.521,1.498c0.555,0.697,1.274,0.56,1.237,0.195
			c-0.021-0.22-0.033-0.439-0.033-0.664C15.218,49.911,18.19,46.937,21.843,46.937z"/>
		<path style="fill:#030104;" d="M30.374,59.443h3.659c-1.636-0.722-2.938-1.074-3.637-1.23
			C30.397,58.605,30.386,59.023,30.374,59.443z"/>
		<path style="fill:#030104;" d="M25.383,49.187c0.742,1.438,1.945,4.668,1.746,10.258h2.242c0.204-6.496-1.571-9.621-1.989-10.258
			H25.383z"/>
		<path style="fill:#030104;" d="M17.875,57.261c0.929,1.314,2.453,2.184,4.182,2.184h0.828c0.061-1.522,0.014-2.864-0.1-4.037
			C20.793,55.564,18.847,56.64,17.875,57.261z"/>
		<path style="fill:#030104;" d="M22.253,52.288c-2.188,0.068-4.369,1.332-5.316,1.958c0,0.021-0.007,0.046-0.007,0.069
			c0,0.739,0.165,1.439,0.449,2.076c1.063-0.669,3.115-1.773,5.286-1.972C22.553,53.618,22.411,52.909,22.253,52.288z"/>
		<path style="fill:#030104;" d="M17.138,52.955c1.158-0.669,2.955-1.509,4.834-1.651c-0.302-0.945-0.613-1.611-0.839-2.023
			C19.197,49.635,17.656,51.081,17.138,52.955z"/>
		<path style="fill:#030104;" d="M22.217,49.187c0.752,1.52,1.888,4.758,1.667,10.258h2.244c0.223-6.189-1.35-9.355-1.894-10.258
			H22.217z"/>
		<path style="fill:#030104;" d="M32.958,25.004c0.908,1.486,2.008,3.422,3.163,5.751c0.481-2.042,2.31-3.571,4.494-3.571
			c0.271,0,0.534,0.027,0.791,0.076c0.432,0.083,0.719-0.795-0.109-1.525c-0.515-0.453-1.195-0.731-1.895-0.731
			C39.402,25.004,32.958,25.004,32.958,25.004z"/>
		<path style="fill:#030104;" d="M35.502,40.833c-0.862-5.961-1.953-11.997-3.208-15.83h-5.148
			c-0.2,3.153-0.873,14.956-0.232,21.934h5.073c1.105,0,2-0.896,2-2v-1.81c0-1.104,0.447-2,1-2
			C35.175,41.127,35.35,41.016,35.502,40.833z"/>
		<path style="fill:#030104;" d="M29.923,53.249c0.222,1.098,0.385,2.406,0.444,3.932c0.898,0.18,3.181,0.747,5.948,2.266h0.975
			c-0.043-0.491-0.142-1.545-0.289-3.01C33.931,54.388,31.182,53.545,29.923,53.249z"/>
		<path style="fill:#030104;" d="M36.518,51.143c-2.577-1.239-4.668-1.767-5.592-1.956h-2.38c0.323,0.6,0.757,1.578,1.124,2.98
			c0.962,0.183,3.88,0.884,7.287,3.029C36.836,54.019,36.689,52.648,36.518,51.143z"/>
		<path style="fill:#030104;" d="M43.378,55.763c0.104,0.85,0.199,1.704,0.271,2.574c0,0-0.136,0.197-0.402,0.462
			c0.678-0.369,1.273-0.871,1.727-1.495C44.448,56.75,43.914,56.245,43.378,55.763z"/>
		<path style="fill:#030104;" d="M36.22,46.903c-0.191-0.054-0.372-0.101-0.522-0.136v2.419h-1.166
			c0.634,0.232,1.332,0.524,2.062,0.863C36.48,49.049,36.356,47.996,36.22,46.903z"/>
		<path style="fill:#030104;" d="M43.421,54.469c0.693,0.597,1.389,1.226,2.076,1.935c0.284-0.64,0.452-1.342,0.452-2.088v-1.869
			c-1.1-1.023-2.208-1.869-3.276-2.571C42.968,51.362,43.216,52.898,43.421,54.469z"/>
		<path style="fill:#030104;" d="M42.559,48.605c1.094,0.674,2.239,1.493,3.392,2.496v-3.752c-1.558-1.128-3.055-1.933-4.355-2.51
			C41.94,46.057,42.264,47.312,42.559,48.605z"/>
		<path style="fill:#030104;" d="M36.064,43.842c-0.223,0.366-0.366,0.914-0.366,1.535v0.364c0.175,0.037,0.392,0.086,0.638,0.148
			C36.25,45.217,36.157,44.53,36.064,43.842z"/>
		<path style="fill:#030104;" d="M44.953,43.377h-1V32.566c0-1.726-1.4-3.132-3.125-3.132c-1.727,0-3.13,1.406-3.13,3.132v1.416
			c1.246,2.812,2.485,6.03,3.548,9.605c1.359,0.548,2.986,1.354,4.707,2.531v-0.741C45.953,44.273,45.503,43.377,44.953,43.377z"/>
	</g>
</g>
<g>
</g>
<g>
</g>
<g>
</g>
<g>
</g>
<g>
</g>
<g>
</g>
<g>
</g>
<g>
</g>
<g>
</g>
<g>
</g>
<g>
</g>
<g>
</g>
<g>
</g>
<g>
</g>
<g>
</g>
</svg>
